^E:\ANNA\PROGRAMS FOR UNIVER\CPP\LESSON 1 MSVS\EXAMPLE2\EXAMPLE2\DEBUG\EXAMPLE2.EXE.EMBED.MANIFEST.RES|E:\ANNA\PROGRAMS FOR UNIVER\CPP\LESSON 1 MSVS\EXAMPLE2\EXAMPLE2\DEBUG\EXAMPLE2.OBJ|E:\ANNA\PROGRAMS FOR UNIVER\CPP\LESSON 1 MSVS\EXAMPLE2\EXAMPLE2\DEBUG\STDAFX.OBJ
/ERRORREPORT:PROMPT /OUT:"E:\Anna\Programs for Univer\CPP\lesson 1 MSVS\Example2\Debug\Example2.exe" /INCREMENTAL /NOLOGO kernel32.lib user32.lib gdi32.lib winspool.lib comdlg32.lib advapi32.lib shell32.lib ole32.lib oleaut32.lib uuid.lib odbc32.lib odbccp32.lib /MANIFEST /ManifestFile:"Debug\Example2.exe.intermediate.manifest" /MANIFESTUAC:"level='asInvoker' uiAccess='false'" /DEBUG /PDB:"E:\Anna\Programs for Univer\CPP\lesson 1 MSVS\Example2\Debug\Example2.pdb" /SUBSYSTEM:CONSOLE /TLBID:1 /DYNAMICBASE /NXCOMPAT /IMPLIB:"E:\Anna\Programs for Univer\CPP\lesson 1 MSVS\Example2\Debug\Example2.lib" /MACHINE:X86 Debug\Example2.exe.embed.manifest.res
Debug\Example2.obj
Debug\stdafx.obj
^E:\ОСНОВЫ ПРОГРАММИРОВАНИЯ\LESSON 1 MSVS\EXAMPLE2\EXAMPLE2\DEBUG\EXAMPLE2.EXE.EMBED.MANIFEST.RES|E:\ОСНОВЫ ПРОГРАММИРОВАНИЯ\LESSON 1 MSVS\EXAMPLE2\EXAMPLE2\DEBUG\EXAMPLE2.OBJ|E:\ОСНОВЫ ПРОГРАММИРОВАНИЯ\LESSON 1 MSVS\EXAMPLE2\EXAMPLE2\DEBUG\STDAFX.OBJ
/ERRORREPORT:PROMPT /OUT:"E:\основы программирования\lesson 1 MSVS\Example2\Debug\Example2.exe" /INCREMENTAL /NOLOGO kernel32.lib user32.lib gdi32.lib winspool.lib comdlg32.lib advapi32.lib shell32.lib ole32.lib oleaut32.lib uuid.lib odbc32.lib odbccp32.lib /MANIFEST /ManifestFile:"Debug\Example2.exe.intermediate.manifest" /MANIFESTUAC:"level='asInvoker' uiAccess='false'" /DEBUG /PDB:"E:\основы программирования\lesson 1 MSVS\Example2\Debug\Example2.pdb" /SUBSYSTEM:CONSOLE /TLBID:1 /DYNAMICBASE /NXCOMPAT /IMPLIB:"E:\основы программирования\lesson 1 MSVS\Example2\Debug\Example2.lib" /MACHINE:X86 Debug\Example2.exe.embed.manifest.res
Debug\Example2.obj
Debug\stdafx.obj
