^E:\C++\LAB1\LAB1\STDAFX.CPP
E:\C++\LAB1\LAB1\DEBUG\LAB1.PCH
E:\C++\LAB1\LAB1\DEBUG\STDAFX.OBJ
E:\C++\LAB1\LAB1\DEBUG\VC100.PDB
^E:\C++\LAB1\LAB1\LAB1.CPP
E:\C++\LAB1\LAB1\DEBUG\LAB1.OBJ
E:\C++\LAB1\LAB1\DEBUG\VC100.PDB
