^E:\C++\LR3ALG\LR3ALG\STDAFX.CPP
E:\C++\LR3ALG\LR3ALG\DEBUG\LR3ALG.PCH
E:\C++\LR3ALG\LR3ALG\DEBUG\STDAFX.OBJ
E:\C++\LR3ALG\LR3ALG\DEBUG\VC100.PDB
^E:\C++\LR3ALG\LR3ALG\LR3ALG.CPP
E:\C++\LR3ALG\LR3ALG\DEBUG\LR3ALG.OBJ
E:\C++\LR3ALG\LR3ALG\DEBUG\VC100.PDB
