^E:\C++\LB\LB\DEBUG\LB.EXE.EMBED.MANIFEST.RES|E:\C++\LB\LB\DEBUG\LB.OBJ|E:\C++\LB\LB\DEBUG\STDAFX.OBJ
C:\PROGRAM FILES (X86)\MICROSOFT SDKS\WINDOWS\V7.0A\LIB\KERNEL32.LIB
C:\PROGRAM FILES (X86)\MICROSOFT SDKS\WINDOWS\V7.0A\LIB\USER32.LIB
C:\PROGRAM FILES (X86)\MICROSOFT SDKS\WINDOWS\V7.0A\LIB\GDI32.LIB
C:\PROGRAM FILES (X86)\MICROSOFT SDKS\WINDOWS\V7.0A\LIB\WINSPOOL.LIB
C:\PROGRAM FILES (X86)\MICROSOFT SDKS\WINDOWS\V7.0A\LIB\COMDLG32.LIB
C:\PROGRAM FILES (X86)\MICROSOFT SDKS\WINDOWS\V7.0A\LIB\ADVAPI32.LIB
C:\PROGRAM FILES (X86)\MICROSOFT SDKS\WINDOWS\V7.0A\LIB\SHELL32.LIB
C:\PROGRAM FILES (X86)\MICROSOFT SDKS\WINDOWS\V7.0A\LIB\OLE32.LIB
C:\PROGRAM FILES (X86)\MICROSOFT SDKS\WINDOWS\V7.0A\LIB\OLEAUT32.LIB
C:\PROGRAM FILES (X86)\MICROSOFT SDKS\WINDOWS\V7.0A\LIB\UUID.LIB
C:\PROGRAM FILES (X86)\MICROSOFT SDKS\WINDOWS\V7.0A\LIB\ODBC32.LIB
C:\PROGRAM FILES (X86)\MICROSOFT SDKS\WINDOWS\V7.0A\LIB\ODBCCP32.LIB
E:\C++\LB\LB\DEBUG\LB.EXE.EMBED.MANIFEST.RES
E:\C++\LB\LB\DEBUG\LB.OBJ
E:\C++\LB\LB\DEBUG\STDAFX.OBJ
C:\WINDOWS\SYSTEM32\TZRES.DLL
E:\C++\LB\DEBUG\LB.ILK
E:\C++\LB\DEBUG\LB.EXE
E:\C++\LB\DEBUG\LB.PDB
C:\WINDOWS\GLOBALIZATION\SORTING\SORTDEFAULT.NLS
E:\VSMS2010\VC\LIB\MSVCPRTD.LIB
E:\VSMS2010\VC\LIB\MSVCRTD.LIB
E:\VSMS2010\VC\LIB\OLDNAMES.LIB
