^E:\C++\LB\LB\DEBUG\LB.EXE.EMBED.MANIFEST.RES|E:\C++\LB\LB\DEBUG\LB.OBJ|E:\C++\LB\LB\DEBUG\STDAFX.OBJ
E:\C++\LB\DEBUG\LB.ILK
E:\C++\LB\DEBUG\LB.EXE
E:\C++\LB\LB\DEBUG\LB.EXE.INTERMEDIATE.MANIFEST
E:\C++\LB\DEBUG\LB.PDB
