^E:\C++\ЛАБОРАТОРНАЯРАБОТА5\ЛАБОРАТОРНАЯРАБОТА5\STDAFX.CPP
/c /ZI /nologo /W3 /WX- /Od /Oy- /D WIN32 /D _DEBUG /D _CONSOLE /D _UNICODE /D UNICODE /Gm /EHsc /RTC1 /MDd /GS /fp:precise /Zc:wchar_t /Zc:forScope /Yc"StdAfx.h" /Fp"Debug\ЛабораторнаяРабота5.pch" /Fo"Debug\\" /Fd"Debug\vc100.pdb" /Gd /TP /analyze- /errorReport:prompt E:\C++\ЛАБОРАТОРНАЯРАБОТА5\ЛАБОРАТОРНАЯРАБОТА5\STDAFX.CPP
^E:\C++\ЛАБОРАТОРНАЯРАБОТА5\ЛАБОРАТОРНАЯРАБОТА5\ЛАБОРАТОРНАЯРАБОТА5.CPP
/c /ZI /nologo /W3 /WX- /Od /Oy- /D WIN32 /D _DEBUG /D _CONSOLE /D _UNICODE /D UNICODE /Gm /EHsc /RTC1 /MDd /GS /fp:precise /Zc:wchar_t /Zc:forScope /Yu"StdAfx.h" /Fp"Debug\ЛабораторнаяРабота5.pch" /Fo"Debug\\" /Fd"Debug\vc100.pdb" /Gd /TP /analyze- /errorReport:prompt E:\C++\ЛАБОРАТОРНАЯРАБОТА5\ЛАБОРАТОРНАЯРАБОТА5\ЛАБОРАТОРНАЯРАБОТА5.CPP
