^E:\C++\ЛАБОРАТОРНАЯРАБОТА5\ЛАБОРАТОРНАЯРАБОТА5\DEBUG\STDAFX.OBJ|E:\C++\ЛАБОРАТОРНАЯРАБОТА5\ЛАБОРАТОРНАЯРАБОТА5\DEBUG\ЛАБОРАТОРНАЯРАБОТА5.EXE.EMBED.MANIFEST.RES|E:\C++\ЛАБОРАТОРНАЯРАБОТА5\ЛАБОРАТОРНАЯРАБОТА5\DEBUG\ЛАБОРАТОРНАЯРАБОТА5.OBJ
C:\PROGRAM FILES (X86)\MICROSOFT SDKS\WINDOWS\V7.0A\LIB\KERNEL32.LIB
C:\PROGRAM FILES (X86)\MICROSOFT SDKS\WINDOWS\V7.0A\LIB\USER32.LIB
C:\PROGRAM FILES (X86)\MICROSOFT SDKS\WINDOWS\V7.0A\LIB\GDI32.LIB
C:\PROGRAM FILES (X86)\MICROSOFT SDKS\WINDOWS\V7.0A\LIB\WINSPOOL.LIB
C:\PROGRAM FILES (X86)\MICROSOFT SDKS\WINDOWS\V7.0A\LIB\COMDLG32.LIB
C:\PROGRAM FILES (X86)\MICROSOFT SDKS\WINDOWS\V7.0A\LIB\ADVAPI32.LIB
C:\PROGRAM FILES (X86)\MICROSOFT SDKS\WINDOWS\V7.0A\LIB\SHELL32.LIB
C:\PROGRAM FILES (X86)\MICROSOFT SDKS\WINDOWS\V7.0A\LIB\OLE32.LIB
C:\PROGRAM FILES (X86)\MICROSOFT SDKS\WINDOWS\V7.0A\LIB\OLEAUT32.LIB
C:\PROGRAM FILES (X86)\MICROSOFT SDKS\WINDOWS\V7.0A\LIB\UUID.LIB
C:\PROGRAM FILES (X86)\MICROSOFT SDKS\WINDOWS\V7.0A\LIB\ODBC32.LIB
C:\PROGRAM FILES (X86)\MICROSOFT SDKS\WINDOWS\V7.0A\LIB\ODBCCP32.LIB
E:\C++\ЛабораторнаяРабота5\ЛабораторнаяРабота5\DEBUG\ЛабораторнаяРабота5.EXE.EMBED.MANIFEST.RES
E:\C++\ЛабораторнаяРабота5\ЛабораторнаяРабота5\DEBUG\STDAFX.OBJ
E:\C++\ЛабораторнаяРабота5\ЛабораторнаяРабота5\DEBUG\ЛабораторнаяРабота5.OBJ
C:\WINDOWS\SYSTEM32\TZRES.DLL
E:\C++\ЛабораторнаяРабота5\DEBUG\ЛабораторнаяРабота5.ILK
E:\C++\ЛабораторнаяРабота5\DEBUG\ЛабораторнаяРабота5.EXE
E:\C++\ЛабораторнаяРабота5\DEBUG\ЛабораторнаяРабота5.PDB
C:\WINDOWS\GLOBALIZATION\SORTING\SORTDEFAULT.NLS
E:\VSMS2010\VC\LIB\MSVCRTD.LIB
E:\VSMS2010\VC\LIB\OLDNAMES.LIB
E:\VSMS2010\VC\LIB\MSVCPRTD.LIB
