^E:\ANNA\PROGRAMS FOR UNIVER\CPP\LESSON 1 MSVS\EXAMPLE1\EXAMPLE1\DEBUG\EXAMPLE1.EXE.EMBED.MANIFEST.RES|E:\ANNA\PROGRAMS FOR UNIVER\CPP\LESSON 1 MSVS\EXAMPLE1\EXAMPLE1\DEBUG\EXAMPLE1.OBJ|E:\ANNA\PROGRAMS FOR UNIVER\CPP\LESSON 1 MSVS\EXAMPLE1\EXAMPLE1\DEBUG\STDAFX.OBJ
C:\PROGRAM FILES\MICROSOFT SDKS\WINDOWS\V7.0A\LIB\KERNEL32.LIB
C:\PROGRAM FILES\MICROSOFT SDKS\WINDOWS\V7.0A\LIB\USER32.LIB
C:\PROGRAM FILES\MICROSOFT SDKS\WINDOWS\V7.0A\LIB\GDI32.LIB
C:\PROGRAM FILES\MICROSOFT SDKS\WINDOWS\V7.0A\LIB\WINSPOOL.LIB
C:\PROGRAM FILES\MICROSOFT SDKS\WINDOWS\V7.0A\LIB\COMDLG32.LIB
C:\PROGRAM FILES\MICROSOFT SDKS\WINDOWS\V7.0A\LIB\ADVAPI32.LIB
C:\PROGRAM FILES\MICROSOFT SDKS\WINDOWS\V7.0A\LIB\SHELL32.LIB
C:\PROGRAM FILES\MICROSOFT SDKS\WINDOWS\V7.0A\LIB\OLE32.LIB
C:\PROGRAM FILES\MICROSOFT SDKS\WINDOWS\V7.0A\LIB\OLEAUT32.LIB
C:\PROGRAM FILES\MICROSOFT SDKS\WINDOWS\V7.0A\LIB\UUID.LIB
C:\PROGRAM FILES\MICROSOFT SDKS\WINDOWS\V7.0A\LIB\ODBC32.LIB
C:\PROGRAM FILES\MICROSOFT SDKS\WINDOWS\V7.0A\LIB\ODBCCP32.LIB
E:\ANNA\PROGRAMS FOR UNIVER\CPP\LESSON 1 MSVS\EXAMPLE1\EXAMPLE1\DEBUG\EXAMPLE1.EXE.EMBED.MANIFEST.RES
E:\ANNA\PROGRAMS FOR UNIVER\CPP\LESSON 1 MSVS\EXAMPLE1\EXAMPLE1\DEBUG\EXAMPLE1.OBJ
E:\ANNA\PROGRAMS FOR UNIVER\CPP\LESSON 1 MSVS\EXAMPLE1\EXAMPLE1\DEBUG\STDAFX.OBJ
C:\WINDOWS\SYSTEM32\TZRES.DLL
E:\ANNA\PROGRAMS FOR UNIVER\CPP\LESSON 1 MSVS\EXAMPLE1\DEBUG\EXAMPLE1.ILK
E:\ANNA\PROGRAMS FOR UNIVER\CPP\LESSON 1 MSVS\EXAMPLE1\DEBUG\EXAMPLE1.EXE
E:\ANNA\PROGRAMS FOR UNIVER\CPP\LESSON 1 MSVS\EXAMPLE1\DEBUG\EXAMPLE1.PDB
C:\WINDOWS\GLOBALIZATION\SORTING\SORTDEFAULT.NLS
C:\PROGRAM FILES\MICROSOFT VISUAL STUDIO 10.0\VC\LIB\MSVCPRTD.LIB
C:\PROGRAM FILES\MICROSOFT VISUAL STUDIO 10.0\VC\LIB\MSVCRTD.LIB
C:\PROGRAM FILES\MICROSOFT VISUAL STUDIO 10.0\VC\LIB\OLDNAMES.LIB
^D:\USERS\USER\ПЗ 17-1\ДЕМИШЕВА Д\LESSON 1 MSVS\EXAMPLE1\EXAMPLE1\DEBUG\EXAMPLE1.EXE.EMBED.MANIFEST.RES|D:\USERS\USER\ПЗ 17-1\ДЕМИШЕВА Д\LESSON 1 MSVS\EXAMPLE1\EXAMPLE1\DEBUG\EXAMPLE1.OBJ|D:\USERS\USER\ПЗ 17-1\ДЕМИШЕВА Д\LESSON 1 MSVS\EXAMPLE1\EXAMPLE1\DEBUG\STDAFX.OBJ
C:\PROGRAM FILES (X86)\MICROSOFT SDKS\WINDOWS\V7.0A\LIB\KERNEL32.LIB
C:\PROGRAM FILES (X86)\MICROSOFT SDKS\WINDOWS\V7.0A\LIB\USER32.LIB
C:\PROGRAM FILES (X86)\MICROSOFT SDKS\WINDOWS\V7.0A\LIB\GDI32.LIB
C:\PROGRAM FILES (X86)\MICROSOFT SDKS\WINDOWS\V7.0A\LIB\WINSPOOL.LIB
C:\PROGRAM FILES (X86)\MICROSOFT SDKS\WINDOWS\V7.0A\LIB\COMDLG32.LIB
C:\PROGRAM FILES (X86)\MICROSOFT SDKS\WINDOWS\V7.0A\LIB\ADVAPI32.LIB
C:\PROGRAM FILES (X86)\MICROSOFT SDKS\WINDOWS\V7.0A\LIB\SHELL32.LIB
C:\PROGRAM FILES (X86)\MICROSOFT SDKS\WINDOWS\V7.0A\LIB\OLE32.LIB
C:\PROGRAM FILES (X86)\MICROSOFT SDKS\WINDOWS\V7.0A\LIB\OLEAUT32.LIB
C:\PROGRAM FILES (X86)\MICROSOFT SDKS\WINDOWS\V7.0A\LIB\UUID.LIB
C:\PROGRAM FILES (X86)\MICROSOFT SDKS\WINDOWS\V7.0A\LIB\ODBC32.LIB
C:\PROGRAM FILES (X86)\MICROSOFT SDKS\WINDOWS\V7.0A\LIB\ODBCCP32.LIB
D:\USERS\USER\ПЗ 17-1\Демишева Д\LESSON 1 MSVS\EXAMPLE1\EXAMPLE1\DEBUG\EXAMPLE1.EXE.EMBED.MANIFEST.RES
D:\USERS\USER\ПЗ 17-1\Демишева Д\LESSON 1 MSVS\EXAMPLE1\EXAMPLE1\DEBUG\EXAMPLE1.OBJ
D:\USERS\USER\ПЗ 17-1\Демишева Д\LESSON 1 MSVS\EXAMPLE1\EXAMPLE1\DEBUG\STDAFX.OBJ
C:\WINDOWS\SYSTEM32\TZRES.DLL
D:\USERS\USER\ПЗ 17-1\Демишева Д\LESSON 1 MSVS\EXAMPLE1\DEBUG\EXAMPLE1.ILK
D:\USERS\USER\ПЗ 17-1\Демишева Д\LESSON 1 MSVS\EXAMPLE1\DEBUG\EXAMPLE1.EXE
D:\USERS\USER\ПЗ 17-1\Демишева Д\LESSON 1 MSVS\EXAMPLE1\DEBUG\EXAMPLE1.PDB
C:\WINDOWS\GLOBALIZATION\SORTING\SORTDEFAULT.NLS
C:\PROGRAM FILES (X86)\MICROSOFT VISUAL STUDIO 10.0\VC\LIB\MSVCPRTD.LIB
C:\PROGRAM FILES (X86)\MICROSOFT VISUAL STUDIO 10.0\VC\LIB\MSVCRTD.LIB
C:\PROGRAM FILES (X86)\MICROSOFT VISUAL STUDIO 10.0\VC\LIB\OLDNAMES.LIB
^F:\LESSON 1 MSVS\EXAMPLE1\EXAMPLE1\DEBUG\EXAMPLE1.EXE.EMBED.MANIFEST.RES|F:\LESSON 1 MSVS\EXAMPLE1\EXAMPLE1\DEBUG\EXAMPLE1.OBJ|F:\LESSON 1 MSVS\EXAMPLE1\EXAMPLE1\DEBUG\STDAFX.OBJ
C:\PROGRAM FILES (X86)\MICROSOFT SDKS\WINDOWS\V7.0A\LIB\KERNEL32.LIB
C:\PROGRAM FILES (X86)\MICROSOFT SDKS\WINDOWS\V7.0A\LIB\USER32.LIB
C:\PROGRAM FILES (X86)\MICROSOFT SDKS\WINDOWS\V7.0A\LIB\GDI32.LIB
C:\PROGRAM FILES (X86)\MICROSOFT SDKS\WINDOWS\V7.0A\LIB\WINSPOOL.LIB
C:\PROGRAM FILES (X86)\MICROSOFT SDKS\WINDOWS\V7.0A\LIB\COMDLG32.LIB
C:\PROGRAM FILES (X86)\MICROSOFT SDKS\WINDOWS\V7.0A\LIB\ADVAPI32.LIB
C:\PROGRAM FILES (X86)\MICROSOFT SDKS\WINDOWS\V7.0A\LIB\SHELL32.LIB
C:\PROGRAM FILES (X86)\MICROSOFT SDKS\WINDOWS\V7.0A\LIB\OLE32.LIB
C:\PROGRAM FILES (X86)\MICROSOFT SDKS\WINDOWS\V7.0A\LIB\OLEAUT32.LIB
C:\PROGRAM FILES (X86)\MICROSOFT SDKS\WINDOWS\V7.0A\LIB\UUID.LIB
C:\PROGRAM FILES (X86)\MICROSOFT SDKS\WINDOWS\V7.0A\LIB\ODBC32.LIB
C:\PROGRAM FILES (X86)\MICROSOFT SDKS\WINDOWS\V7.0A\LIB\ODBCCP32.LIB
F:\LESSON 1 MSVS\EXAMPLE1\EXAMPLE1\DEBUG\EXAMPLE1.EXE.EMBED.MANIFEST.RES
F:\LESSON 1 MSVS\EXAMPLE1\EXAMPLE1\DEBUG\EXAMPLE1.OBJ
F:\LESSON 1 MSVS\EXAMPLE1\EXAMPLE1\DEBUG\STDAFX.OBJ
C:\WINDOWS\SYSTEM32\TZRES.DLL
F:\LESSON 1 MSVS\EXAMPLE1\DEBUG\EXAMPLE1.ILK
C:\WINDOWS\GLOBALIZATION\SORTING\SORTDEFAULT.NLS
E:\VSMS2010\VC\LIB\MSVCPRTD.LIB
E:\VSMS2010\VC\LIB\MSVCRTD.LIB
E:\VSMS2010\VC\LIB\OLDNAMES.LIB
E:\VSMS2010\VC\BIN\CVTRES.EXE
F:\LESSON 1 MSVS\EXAMPLE1\DEBUG\EXAMPLE1.EXE
F:\LESSON 1 MSVS\EXAMPLE1\DEBUG\EXAMPLE1.PDB
