^E:\ANNA\PROGRAMS FOR UNIVER\CPP\LESSON 1 MSVS\EXAMPLE1\EXAMPLE1\DEBUG\EXAMPLE1.EXE.INTERMEDIATE.MANIFEST
E:\ANNA\PROGRAMS FOR UNIVER\CPP\LESSON 1 MSVS\EXAMPLE1\EXAMPLE1\DEBUG\EXAMPLE1.EXE.EMBED.MANIFEST
^F:\LESSON 1 MSVS\EXAMPLE1\EXAMPLE1\DEBUG\EXAMPLE1.EXE.INTERMEDIATE.MANIFEST
F:\LESSON 1 MSVS\EXAMPLE1\EXAMPLE1\DEBUG\EXAMPLE1.EXE.EMBED.MANIFEST
