^E:\ANNA\PROGRAMS FOR UNIVER\CPP\LESSON 1 MSVS\EXAMPLE1\EXAMPLE1\DEBUG\EXAMPLE1_MANIFEST.RC
/nologo /fo"Debug\Example1.exe.embed.manifest.res" Debug\Example1_manifest.rc /nologo /fo"Debug\Example1.exe.embed.manifest.res" E:\ANNA\PROGRAMS FOR UNIVER\CPP\LESSON 1 MSVS\EXAMPLE1\EXAMPLE1\DEBUG\EXAMPLE1_MANIFEST.RC
^D:\USERS\USER\ПЗ 17-1\ДЕМИШЕВА Д\LESSON 1 MSVS\EXAMPLE1\EXAMPLE1\DEBUG\EXAMPLE1_MANIFEST.RC
/nologo /fo"Debug\Example1.exe.embed.manifest.res" Debug\Example1_manifest.rc /nologo /fo"Debug\Example1.exe.embed.manifest.res" D:\USERS\USER\ПЗ 17-1\ДЕМИШЕВА Д\LESSON 1 MSVS\EXAMPLE1\EXAMPLE1\DEBUG\EXAMPLE1_MANIFEST.RC
^F:\LESSON 1 MSVS\EXAMPLE1\EXAMPLE1\DEBUG\EXAMPLE1_MANIFEST.RC
/nologo /fo"Debug\Example1.exe.embed.manifest.res" Debug\Example1_manifest.rc /nologo /fo"Debug\Example1.exe.embed.manifest.res" F:\LESSON 1 MSVS\EXAMPLE1\EXAMPLE1\DEBUG\EXAMPLE1_MANIFEST.RC
