^E:\C++\ЛАБА С++ СЕМЕСТР 2 НОМЕР 2\ЛАБА 1 УРОВЕНЬ СЛОЖНОСТИ\ЛАБА 1 УРОВЕНЬ СЛОЖНОСТИ\STDAFX.CPP
/c /ZI /nologo /W3 /WX- /Od /Oy- /D WIN32 /D _DEBUG /D _CONSOLE /D _UNICODE /D UNICODE /Gm /EHsc /RTC1 /MDd /GS /fp:precise /Zc:wchar_t /Zc:forScope /Yc"StdAfx.h" /Fp"Debug\лаба 1 уровень сложности.pch" /Fo"Debug\\" /Fd"Debug\vc100.pdb" /Gd /TP /analyze- /errorReport:prompt E:\C++\ЛАБА С++ СЕМЕСТР 2 НОМЕР 2\ЛАБА 1 УРОВЕНЬ СЛОЖНОСТИ\ЛАБА 1 УРОВЕНЬ СЛОЖНОСТИ\STDAFX.CPP
^E:\C++\ЛАБА С++ СЕМЕСТР 2 НОМЕР 2\ЛАБА 1 УРОВЕНЬ СЛОЖНОСТИ\ЛАБА 1 УРОВЕНЬ СЛОЖНОСТИ\ЛАБА 1 УРОВЕНЬ СЛОЖНОСТИ.CPP
/c /ZI /nologo /W3 /WX- /Od /Oy- /D WIN32 /D _DEBUG /D _CONSOLE /D _UNICODE /D UNICODE /Gm /EHsc /RTC1 /MDd /GS /fp:precise /Zc:wchar_t /Zc:forScope /Yu"StdAfx.h" /Fp"Debug\лаба 1 уровень сложности.pch" /Fo"Debug\\" /Fd"Debug\vc100.pdb" /Gd /TP /analyze- /errorReport:prompt E:\C++\ЛАБА С++ СЕМЕСТР 2 НОМЕР 2\ЛАБА 1 УРОВЕНЬ СЛОЖНОСТИ\ЛАБА 1 УРОВЕНЬ СЛОЖНОСТИ\ЛАБА 1 УРОВЕНЬ СЛОЖНОСТИ.CPP
