^E:\C++\ЛАБА С++ СЕМЕСТР 2 НОМЕР 2\ЛАБА 1 УРОВЕНЬ СЛОЖНОСТИ\ЛАБА 1 УРОВЕНЬ СЛОЖНОСТИ\DEBUG\STDAFX.OBJ|E:\C++\ЛАБА С++ СЕМЕСТР 2 НОМЕР 2\ЛАБА 1 УРОВЕНЬ СЛОЖНОСТИ\ЛАБА 1 УРОВЕНЬ СЛОЖНОСТИ\DEBUG\ЛАБА 1 УРОВЕНЬ СЛОЖНОСТИ.EXE.EMBED.MANIFEST.RES|E:\C++\ЛАБА С++ СЕМЕСТР 2 НОМЕР 2\ЛАБА 1 УРОВЕНЬ СЛОЖНОСТИ\ЛАБА 1 УРОВЕНЬ СЛОЖНОСТИ\DEBUG\ЛАБА 1 УРОВЕНЬ СЛОЖНОСТИ.OBJ
/ERRORREPORT:PROMPT /OUT:"E:\c++\лаба с++ семестр 2 номер 2\лаба 1 уровень сложности\Debug\лаба 1 уровень сложности.exe" /INCREMENTAL /NOLOGO kernel32.lib user32.lib gdi32.lib winspool.lib comdlg32.lib advapi32.lib shell32.lib ole32.lib oleaut32.lib uuid.lib odbc32.lib odbccp32.lib /MANIFEST /ManifestFile:"Debug\лаба 1 уровень сложности.exe.intermediate.manifest" /MANIFESTUAC:"level='asInvoker' uiAccess='false'" /DEBUG /PDB:"E:\c++\лаба с++ семестр 2 номер 2\лаба 1 уровень сложности\Debug\лаба 1 уровень сложности.pdb" /SUBSYSTEM:CONSOLE /TLBID:1 /DYNAMICBASE /NXCOMPAT /IMPLIB:"E:\c++\лаба с++ семестр 2 номер 2\лаба 1 уровень сложности\Debug\лаба 1 уровень сложности.lib" /MACHINE:X86 "Debug\лаба 1 уровень сложности.exe.embed.manifest.res"
Debug\stdafx.obj
"Debug\лаба 1 уровень сложности.obj"
