^E:\ОСНОВЫ ПРОГРАММИРОВАНИЯ\ЛАБОРАТОРНАЯ 1\112\112\STDAFX.CPP
E:\VSMS2010\VC\BIN\1049\CLUI.DLL
C:\WINDOWS\GLOBALIZATION\SORTING\SORTDEFAULT.NLS
C:\WINDOWS\SYSTEM32\TZRES.DLL
E:\основы программирования\лабораторная 1\112\112\STDAFX.H
E:\основы программирования\лабораторная 1\112\112\TARGETVER.H
C:\PROGRAM FILES (X86)\MICROSOFT SDKS\WINDOWS\V7.0A\INCLUDE\SDKDDKVER.H
E:\VSMS2010\VC\INCLUDE\STDIO.H
E:\VSMS2010\VC\INCLUDE\CRTDEFS.H
E:\VSMS2010\VC\INCLUDE\SAL.H
E:\VSMS2010\VC\INCLUDE\CODEANALYSIS\SOURCEANNOTATIONS.H
E:\VSMS2010\VC\INCLUDE\VADEFS.H
E:\VSMS2010\VC\INCLUDE\SWPRINTF.INL
E:\VSMS2010\VC\INCLUDE\TCHAR.H
E:\VSMS2010\VC\INCLUDE\WCHAR.H
E:\VSMS2010\VC\INCLUDE\WTIME.INL
E:\VSMS2010\VC\ATLMFC\INCLUDE\AFX.H
E:\VSMS2010\VC\INCLUDE\NEW.H
E:\VSMS2010\VC\ATLMFC\INCLUDE\AFXVER_.H
E:\VSMS2010\VC\ATLMFC\INCLUDE\AFXV_W32.H
C:\PROGRAM FILES (X86)\MICROSOFT SDKS\WINDOWS\V7.0A\INCLUDE\WINSDKVER.H
C:\PROGRAM FILES (X86)\MICROSOFT SDKS\WINDOWS\V7.0A\INCLUDE\WINDOWS.H
E:\VSMS2010\VC\INCLUDE\EXCPT.H
E:\VSMS2010\VC\INCLUDE\STDARG.H
C:\PROGRAM FILES (X86)\MICROSOFT SDKS\WINDOWS\V7.0A\INCLUDE\WINDEF.H
C:\PROGRAM FILES (X86)\MICROSOFT SDKS\WINDOWS\V7.0A\INCLUDE\WINNT.H
E:\VSMS2010\VC\INCLUDE\CTYPE.H
C:\PROGRAM FILES (X86)\MICROSOFT SDKS\WINDOWS\V7.0A\INCLUDE\SPECSTRINGS.H
C:\PROGRAM FILES (X86)\MICROSOFT SDKS\WINDOWS\V7.0A\INCLUDE\SAL_SUPP.H
C:\PROGRAM FILES (X86)\MICROSOFT SDKS\WINDOWS\V7.0A\INCLUDE\SPECSTRINGS_SUPP.H
C:\PROGRAM FILES (X86)\MICROSOFT SDKS\WINDOWS\V7.0A\INCLUDE\SPECSTRINGS_STRICT.H
C:\PROGRAM FILES (X86)\MICROSOFT SDKS\WINDOWS\V7.0A\INCLUDE\SPECSTRINGS_UNDEF.H
C:\PROGRAM FILES (X86)\MICROSOFT SDKS\WINDOWS\V7.0A\INCLUDE\DRIVERSPECS.H
C:\PROGRAM FILES (X86)\MICROSOFT SDKS\WINDOWS\V7.0A\INCLUDE\SDV_DRIVERSPECS.H
C:\PROGRAM FILES (X86)\MICROSOFT SDKS\WINDOWS\V7.0A\INCLUDE\KERNELSPECS.H
C:\PROGRAM FILES (X86)\MICROSOFT SDKS\WINDOWS\V7.0A\INCLUDE\BASETSD.H
C:\PROGRAM FILES (X86)\MICROSOFT SDKS\WINDOWS\V7.0A\INCLUDE\GUIDDEF.H
E:\VSMS2010\VC\INCLUDE\STRING.H
C:\PROGRAM FILES (X86)\MICROSOFT SDKS\WINDOWS\V7.0A\INCLUDE\PSHPACK4.H
C:\PROGRAM FILES (X86)\MICROSOFT SDKS\WINDOWS\V7.0A\INCLUDE\POPPACK.H
C:\PROGRAM FILES (X86)\MICROSOFT SDKS\WINDOWS\V7.0A\INCLUDE\PSHPACK2.H
C:\PROGRAM FILES (X86)\MICROSOFT SDKS\WINDOWS\V7.0A\INCLUDE\PSHPACK8.H
C:\PROGRAM FILES (X86)\MICROSOFT SDKS\WINDOWS\V7.0A\INCLUDE\KTMTYPES.H
C:\PROGRAM FILES (X86)\MICROSOFT SDKS\WINDOWS\V7.0A\INCLUDE\WINBASE.H
C:\PROGRAM FILES (X86)\MICROSOFT SDKS\WINDOWS\V7.0A\INCLUDE\WINERROR.H
C:\PROGRAM FILES (X86)\MICROSOFT SDKS\WINDOWS\V7.0A\INCLUDE\WINGDI.H
C:\PROGRAM FILES (X86)\MICROSOFT SDKS\WINDOWS\V7.0A\INCLUDE\PSHPACK1.H
C:\PROGRAM FILES (X86)\MICROSOFT SDKS\WINDOWS\V7.0A\INCLUDE\WINUSER.H
C:\PROGRAM FILES (X86)\MICROSOFT SDKS\WINDOWS\V7.0A\INCLUDE\TVOUT.H
C:\PROGRAM FILES (X86)\MICROSOFT SDKS\WINDOWS\V7.0A\INCLUDE\WINNLS.H
C:\PROGRAM FILES (X86)\MICROSOFT SDKS\WINDOWS\V7.0A\INCLUDE\WINCON.H
C:\PROGRAM FILES (X86)\MICROSOFT SDKS\WINDOWS\V7.0A\INCLUDE\WINVER.H
C:\PROGRAM FILES (X86)\MICROSOFT SDKS\WINDOWS\V7.0A\INCLUDE\VERRSRC.H
C:\PROGRAM FILES (X86)\MICROSOFT SDKS\WINDOWS\V7.0A\INCLUDE\WINREG.H
C:\PROGRAM FILES (X86)\MICROSOFT SDKS\WINDOWS\V7.0A\INCLUDE\REASON.H
C:\PROGRAM FILES (X86)\MICROSOFT SDKS\WINDOWS\V7.0A\INCLUDE\WINNETWK.H
C:\PROGRAM FILES (X86)\MICROSOFT SDKS\WINDOWS\V7.0A\INCLUDE\WNNC.H
C:\PROGRAM FILES (X86)\MICROSOFT SDKS\WINDOWS\V7.0A\INCLUDE\STRALIGN.H
C:\PROGRAM FILES (X86)\MICROSOFT SDKS\WINDOWS\V7.0A\INCLUDE\ZMOUSE.H
C:\PROGRAM FILES (X86)\MICROSOFT SDKS\WINDOWS\V7.0A\INCLUDE\COMMCTRL.H
C:\PROGRAM FILES (X86)\MICROSOFT SDKS\WINDOWS\V7.0A\INCLUDE\PRSHT.H
E:\VSMS2010\VC\ATLMFC\INCLUDE\AFXV_DLL.H
E:\VSMS2010\VC\INCLUDE\STDLIB.H
E:\VSMS2010\VC\INCLUDE\LIMITS.H
E:\VSMS2010\VC\INCLUDE\TIME.H
E:\VSMS2010\VC\INCLUDE\TIME.INL
E:\VSMS2010\VC\INCLUDE\STDDEF.H
E:\VSMS2010\VC\INCLUDE\ERRNO.H
E:\VSMS2010\VC\INCLUDE\MALLOC.H
E:\VSMS2010\VC\INCLUDE\CRTDBG.H
E:\VSMS2010\VC\ATLMFC\INCLUDE\ATLTRACE.H
E:\VSMS2010\VC\ATLMFC\INCLUDE\ATLDEF.H
E:\VSMS2010\VC\ATLMFC\INCLUDE\ATLRC.H
E:\VSMS2010\VC\ATLMFC\INCLUDE\ATLCONV.H
E:\VSMS2010\VC\ATLMFC\INCLUDE\ATLALLOC.H
C:\PROGRAM FILES (X86)\MICROSOFT SDKS\WINDOWS\V7.0A\INCLUDE\OLE2.H
C:\PROGRAM FILES (X86)\MICROSOFT SDKS\WINDOWS\V7.0A\INCLUDE\OBJBASE.H
C:\PROGRAM FILES (X86)\MICROSOFT SDKS\WINDOWS\V7.0A\INCLUDE\RPC.H
C:\PROGRAM FILES (X86)\MICROSOFT SDKS\WINDOWS\V7.0A\INCLUDE\RPCDCE.H
C:\PROGRAM FILES (X86)\MICROSOFT SDKS\WINDOWS\V7.0A\INCLUDE\RPCDCEP.H
C:\PROGRAM FILES (X86)\MICROSOFT SDKS\WINDOWS\V7.0A\INCLUDE\RPCNSI.H
C:\PROGRAM FILES (X86)\MICROSOFT SDKS\WINDOWS\V7.0A\INCLUDE\RPCNTERR.H
C:\PROGRAM FILES (X86)\MICROSOFT SDKS\WINDOWS\V7.0A\INCLUDE\RPCASYNC.H
C:\PROGRAM FILES (X86)\MICROSOFT SDKS\WINDOWS\V7.0A\INCLUDE\RPCNDR.H
C:\PROGRAM FILES (X86)\MICROSOFT SDKS\WINDOWS\V7.0A\INCLUDE\RPCNSIP.H
C:\PROGRAM FILES (X86)\MICROSOFT SDKS\WINDOWS\V7.0A\INCLUDE\RPCSAL.H
C:\PROGRAM FILES (X86)\MICROSOFT SDKS\WINDOWS\V7.0A\INCLUDE\WTYPES.H
C:\PROGRAM FILES (X86)\MICROSOFT SDKS\WINDOWS\V7.0A\INCLUDE\UNKNWN.H
C:\PROGRAM FILES (X86)\MICROSOFT SDKS\WINDOWS\V7.0A\INCLUDE\OBJIDL.H
C:\PROGRAM FILES (X86)\MICROSOFT SDKS\WINDOWS\V7.0A\INCLUDE\CGUID.H
C:\PROGRAM FILES (X86)\MICROSOFT SDKS\WINDOWS\V7.0A\INCLUDE\URLMON.H
C:\PROGRAM FILES (X86)\MICROSOFT SDKS\WINDOWS\V7.0A\INCLUDE\OLEIDL.H
C:\PROGRAM FILES (X86)\MICROSOFT SDKS\WINDOWS\V7.0A\INCLUDE\SERVPROV.H
C:\PROGRAM FILES (X86)\MICROSOFT SDKS\WINDOWS\V7.0A\INCLUDE\MSXML.H
C:\PROGRAM FILES (X86)\MICROSOFT SDKS\WINDOWS\V7.0A\INCLUDE\OAIDL.H
C:\PROGRAM FILES (X86)\MICROSOFT SDKS\WINDOWS\V7.0A\INCLUDE\PROPIDL.H
C:\PROGRAM FILES (X86)\MICROSOFT SDKS\WINDOWS\V7.0A\INCLUDE\OLEAUTO.H
E:\VSMS2010\VC\ATLMFC\INCLUDE\ATLDEBUGAPI.H
E:\VSMS2010\VC\ATLMFC\INCLUDE\AFXSTR.H
E:\VSMS2010\VC\INCLUDE\MBSTRING.H
E:\VSMS2010\VC\ATLMFC\INCLUDE\ATLCORE.H
E:\VSMS2010\VC\ATLMFC\INCLUDE\ATLCHECKED.H
E:\VSMS2010\VC\ATLMFC\INCLUDE\ATLEXCEPT.H
E:\VSMS2010\VC\ATLMFC\INCLUDE\ATLSIMPCOLL.H
E:\VSMS2010\VC\ATLMFC\INCLUDE\CSTRINGT.H
E:\VSMS2010\VC\ATLMFC\INCLUDE\ATLSIMPSTR.H
E:\VSMS2010\VC\ATLMFC\INCLUDE\ATLMEM.H
E:\VSMS2010\VC\ATLMFC\INCLUDE\ATLCOMMEM.H
E:\VSMS2010\VC\ATLMFC\INCLUDE\ATLCOMCLI.H
C:\PROGRAM FILES (X86)\MICROSOFT SDKS\WINDOWS\V7.0A\INCLUDE\OLECTL.H
C:\PROGRAM FILES (X86)\MICROSOFT SDKS\WINDOWS\V7.0A\INCLUDE\OCIDL.H
E:\VSMS2010\VC\ATLMFC\INCLUDE\CSTRINGT.INL
E:\VSMS2010\VC\ATLMFC\INCLUDE\ATLTRANSACTIONMANAGER.H
C:\PROGRAM FILES (X86)\MICROSOFT SDKS\WINDOWS\V7.0A\INCLUDE\KTMW32.H
E:\VSMS2010\VC\ATLMFC\INCLUDE\ATLTIME.H
C:\PROGRAM FILES (X86)\MICROSOFT SDKS\WINDOWS\V7.0A\INCLUDE\OLEDB.H
C:\PROGRAM FILES (X86)\MICROSOFT SDKS\WINDOWS\V7.0A\INCLUDE\TRANSACT.H
C:\PROGRAM FILES (X86)\MICROSOFT SDKS\WINDOWS\V7.0A\INCLUDE\ACCCTRL.H
E:\VSMS2010\VC\ATLMFC\INCLUDE\AFXCOLL.H
E:\VSMS2010\VC\ATLMFC\INCLUDE\AFXSTAT_.H
E:\VSMS2010\VC\ATLMFC\INCLUDE\ATLTYPES.H
E:\VSMS2010\VC\ATLMFC\INCLUDE\AFXTLS_.H
E:\VSMS2010\VC\ATLMFC\INCLUDE\AFX.INL
E:\VSMS2010\VC\ATLMFC\INCLUDE\AFXWIN.H
C:\PROGRAM FILES (X86)\MICROSOFT SDKS\WINDOWS\V7.0A\INCLUDE\SHELLAPI.H
E:\VSMS2010\VC\ATLMFC\INCLUDE\AFXRES.H
C:\PROGRAM FILES (X86)\MICROSOFT SDKS\WINDOWS\V7.0A\INCLUDE\COMMDLG.H
E:\VSMS2010\VC\ATLMFC\INCLUDE\AFXCTRLCONTAINER.H
C:\PROGRAM FILES (X86)\MICROSOFT SDKS\WINDOWS\V7.0A\INCLUDE\SHOBJIDL.H
C:\PROGRAM FILES (X86)\MICROSOFT SDKS\WINDOWS\V7.0A\INCLUDE\DOCOBJ.H
C:\PROGRAM FILES (X86)\MICROSOFT SDKS\WINDOWS\V7.0A\INCLUDE\SHTYPES.H
C:\PROGRAM FILES (X86)\MICROSOFT SDKS\WINDOWS\V7.0A\INCLUDE\COMCAT.H
C:\PROGRAM FILES (X86)\MICROSOFT SDKS\WINDOWS\V7.0A\INCLUDE\PROPSYS.H
C:\PROGRAM FILES (X86)\MICROSOFT SDKS\WINDOWS\V7.0A\INCLUDE\STRUCTUREDQUERYCONDITION.H
C:\PROGRAM FILES (X86)\MICROSOFT SDKS\WINDOWS\V7.0A\INCLUDE\PROPKEYDEF.H
C:\PROGRAM FILES (X86)\MICROSOFT SDKS\WINDOWS\V7.0A\INCLUDE\OBJECTARRAY.H
C:\PROGRAM FILES (X86)\MICROSOFT SDKS\WINDOWS\V7.0A\INCLUDE\SHERRORS.H
C:\PROGRAM FILES (X86)\MICROSOFT SDKS\WINDOWS\V7.0A\INCLUDE\THUMBCACHE.H
E:\VSMS2010\VC\ATLMFC\INCLUDE\ATLHANDLER.H
C:\PROGRAM FILES (X86)\MICROSOFT SDKS\WINDOWS\V7.0A\INCLUDE\FILTER.H
E:\VSMS2010\VC\ATLMFC\INCLUDE\ATLSTR.H
E:\VSMS2010\VC\ATLMFC\INCLUDE\ATLBASE.H
C:\PROGRAM FILES (X86)\MICROSOFT SDKS\WINDOWS\V7.0A\INCLUDE\WINSOCK2.H
C:\PROGRAM FILES (X86)\MICROSOFT SDKS\WINDOWS\V7.0A\INCLUDE\WS2DEF.H
C:\PROGRAM FILES (X86)\MICROSOFT SDKS\WINDOWS\V7.0A\INCLUDE\INADDR.H
C:\PROGRAM FILES (X86)\MICROSOFT SDKS\WINDOWS\V7.0A\INCLUDE\QOS.H
E:\VSMS2010\VC\ATLMFC\INCLUDE\ATLIFACE.H
C:\PROGRAM FILES (X86)\MICROSOFT SDKS\WINDOWS\V7.0A\INCLUDE\OLEACC.H
E:\VSMS2010\VC\INCLUDE\PROCESS.H
C:\PROGRAM FILES (X86)\MICROSOFT SDKS\WINDOWS\V7.0A\INCLUDE\SHLWAPI.H
E:\VSMS2010\VC\ATLMFC\INCLUDE\STATREG.H
C:\PROGRAM FILES (X86)\MICROSOFT SDKS\WINDOWS\V7.0A\INCLUDE\TPCSHRD.H
E:\VSMS2010\VC\ATLMFC\INCLUDE\AFXCOMCTL32.H
C:\PROGRAM FILES (X86)\MICROSOFT SDKS\WINDOWS\V7.0A\INCLUDE\VSSYM32.H
C:\PROGRAM FILES (X86)\MICROSOFT SDKS\WINDOWS\V7.0A\INCLUDE\VSSTYLE.H
C:\PROGRAM FILES (X86)\MICROSOFT SDKS\WINDOWS\V7.0A\INCLUDE\WS2IPDEF.H
C:\PROGRAM FILES (X86)\MICROSOFT SDKS\WINDOWS\V7.0A\INCLUDE\IN6ADDR.H
C:\PROGRAM FILES (X86)\MICROSOFT SDKS\WINDOWS\V7.0A\INCLUDE\WINDNS.H
C:\PROGRAM FILES (X86)\MICROSOFT SDKS\WINDOWS\V7.0A\INCLUDE\IPHLPAPI.H
C:\PROGRAM FILES (X86)\MICROSOFT SDKS\WINDOWS\V7.0A\INCLUDE\IPRTRMIB.H
C:\PROGRAM FILES (X86)\MICROSOFT SDKS\WINDOWS\V7.0A\INCLUDE\MPRAPI.H
C:\PROGRAM FILES (X86)\MICROSOFT SDKS\WINDOWS\V7.0A\INCLUDE\LMCONS.H
C:\PROGRAM FILES (X86)\MICROSOFT SDKS\WINDOWS\V7.0A\INCLUDE\RAS.H
C:\PROGRAM FILES (X86)\MICROSOFT SDKS\WINDOWS\V7.0A\INCLUDE\WINCRYPT.H
C:\PROGRAM FILES (X86)\MICROSOFT SDKS\WINDOWS\V7.0A\INCLUDE\BCRYPT.H
C:\PROGRAM FILES (X86)\MICROSOFT SDKS\WINDOWS\V7.0A\INCLUDE\NCRYPT.H
C:\PROGRAM FILES (X86)\MICROSOFT SDKS\WINDOWS\V7.0A\INCLUDE\IPIFCONS.H
C:\PROGRAM FILES (X86)\MICROSOFT SDKS\WINDOWS\V7.0A\INCLUDE\IPMIB.H
C:\PROGRAM FILES (X86)\MICROSOFT SDKS\WINDOWS\V7.0A\INCLUDE\IFMIB.H
C:\PROGRAM FILES (X86)\MICROSOFT SDKS\WINDOWS\V7.0A\INCLUDE\IFDEF.H
C:\PROGRAM FILES (X86)\MICROSOFT SDKS\WINDOWS\V7.0A\INCLUDE\NLDEF.H
C:\PROGRAM FILES (X86)\MICROSOFT SDKS\WINDOWS\V7.0A\INCLUDE\TCPMIB.H
C:\PROGRAM FILES (X86)\MICROSOFT SDKS\WINDOWS\V7.0A\INCLUDE\UDPMIB.H
C:\PROGRAM FILES (X86)\MICROSOFT SDKS\WINDOWS\V7.0A\INCLUDE\IPEXPORT.H
C:\PROGRAM FILES (X86)\MICROSOFT SDKS\WINDOWS\V7.0A\INCLUDE\PACKON.H
C:\PROGRAM FILES (X86)\MICROSOFT SDKS\WINDOWS\V7.0A\INCLUDE\PACKOFF.H
C:\PROGRAM FILES (X86)\MICROSOFT SDKS\WINDOWS\V7.0A\INCLUDE\IPTYPES.H
C:\PROGRAM FILES (X86)\MICROSOFT SDKS\WINDOWS\V7.0A\INCLUDE\TCPESTATS.H
C:\PROGRAM FILES (X86)\MICROSOFT SDKS\WINDOWS\V7.0A\INCLUDE\NETIOAPI.H
C:\PROGRAM FILES (X86)\MICROSOFT SDKS\WINDOWS\V7.0A\INCLUDE\NTDDNDIS.H
C:\PROGRAM FILES (X86)\MICROSOFT SDKS\WINDOWS\V7.0A\INCLUDE\DEVPKEY.H
C:\PROGRAM FILES (X86)\MICROSOFT SDKS\WINDOWS\V7.0A\INCLUDE\DEVPROPDEF.H
C:\PROGRAM FILES (X86)\MICROSOFT SDKS\WINDOWS\V7.0A\INCLUDE\PCIPROP.H
C:\PROGRAM FILES (X86)\MICROSOFT SDKS\WINDOWS\V7.0A\INCLUDE\WINDOT11.H
C:\PROGRAM FILES (X86)\MICROSOFT SDKS\WINDOWS\V7.0A\INCLUDE\WLANTYPES.H
C:\PROGRAM FILES (X86)\MICROSOFT SDKS\WINDOWS\V7.0A\INCLUDE\HTMLHELP.H
E:\VSMS2010\VC\ATLMFC\INCLUDE\AFXMSG_.H
E:\VSMS2010\VC\ATLMFC\INCLUDE\AFXDD_.H
E:\VSMS2010\VC\ATLMFC\INCLUDE\AFXDLL_.H
E:\VSMS2010\VC\ATLMFC\INCLUDE\AFXCOMCTL32.INL
E:\VSMS2010\VC\ATLMFC\INCLUDE\AFXWIN4.INL
E:\VSMS2010\VC\ATLMFC\INCLUDE\AFXEXT.H
E:\VSMS2010\VC\ATLMFC\INCLUDE\AFXDLGS.H
C:\PROGRAM FILES (X86)\MICROSOFT SDKS\WINDOWS\V7.0A\INCLUDE\RICHEDIT.H
C:\PROGRAM FILES (X86)\MICROSOFT SDKS\WINDOWS\V7.0A\INCLUDE\UXTHEME.H
E:\VSMS2010\VC\ATLMFC\INCLUDE\AFXDTCTL.H
E:\VSMS2010\VC\ATLMFC\INCLUDE\AFXDISP.H
C:\PROGRAM FILES (X86)\MICROSOFT SDKS\WINDOWS\V7.0A\INCLUDE\SHLOBJ.H
C:\PROGRAM FILES (X86)\MICROSOFT SDKS\WINDOWS\V7.0A\INCLUDE\SHLGUID.H
C:\PROGRAM FILES (X86)\MICROSOFT SDKS\WINDOWS\V7.0A\INCLUDE\ISGUIDS.H
C:\PROGRAM FILES (X86)\MICROSOFT SDKS\WINDOWS\V7.0A\INCLUDE\EXDISP.H
C:\PROGRAM FILES (X86)\MICROSOFT SDKS\WINDOWS\V7.0A\INCLUDE\SHLDISP.H
C:\PROGRAM FILES (X86)\MICROSOFT SDKS\WINDOWS\V7.0A\INCLUDE\KNOWNFOLDERS.H
E:\VSMS2010\VC\ATLMFC\INCLUDE\ATLCOMTIME.H
E:\VSMS2010\VC\ATLMFC\INCLUDE\AFXOCC.H
E:\VSMS2010\VC\ATLMFC\INCLUDE\AFXTEMPL.H
E:\VSMS2010\VC\ATLMFC\INCLUDE\AFXPLEX_.H
E:\VSMS2010\VC\ATLMFC\INCLUDE\OLEBIND.H
E:\VSMS2010\VC\ATLMFC\INCLUDE\OCDBID.H
E:\VSMS2010\VC\ATLMFC\INCLUDE\OCDB.H
E:\VSMS2010\VC\ATLMFC\INCLUDE\AFXCMN.H
E:\VSMS2010\VC\ATLMFC\INCLUDE\AFXCMN3.INL
E:\VSMS2010\VC\INCLUDE\IOSTREAM
E:\VSMS2010\VC\INCLUDE\ISTREAM
E:\VSMS2010\VC\INCLUDE\OSTREAM
E:\VSMS2010\VC\INCLUDE\IOS
E:\VSMS2010\VC\INCLUDE\XLOCNUM
E:\VSMS2010\VC\INCLUDE\CLIMITS
E:\VSMS2010\VC\INCLUDE\YVALS.H
E:\VSMS2010\VC\INCLUDE\USE_ANSI.H
E:\VSMS2010\VC\INCLUDE\CMATH
E:\VSMS2010\VC\INCLUDE\MATH.H
E:\VSMS2010\VC\INCLUDE\CSTDIO
E:\VSMS2010\VC\INCLUDE\CSTDLIB
E:\VSMS2010\VC\INCLUDE\STREAMBUF
E:\VSMS2010\VC\INCLUDE\XIOSBASE
E:\VSMS2010\VC\INCLUDE\XLOCALE
E:\VSMS2010\VC\INCLUDE\CSTRING
E:\VSMS2010\VC\INCLUDE\STDEXCEPT
E:\VSMS2010\VC\INCLUDE\EXCEPTION
E:\VSMS2010\VC\INCLUDE\XSTDDEF
E:\VSMS2010\VC\INCLUDE\CSTDDEF
E:\VSMS2010\VC\INCLUDE\EH.H
E:\VSMS2010\VC\INCLUDE\XSTRING
E:\VSMS2010\VC\INCLUDE\XMEMORY
E:\VSMS2010\VC\INCLUDE\NEW
E:\VSMS2010\VC\INCLUDE\XUTILITY
E:\VSMS2010\VC\INCLUDE\UTILITY
E:\VSMS2010\VC\INCLUDE\IOSFWD
E:\VSMS2010\VC\INCLUDE\CWCHAR
E:\VSMS2010\VC\INCLUDE\TYPE_TRAITS
E:\VSMS2010\VC\INCLUDE\LIMITS
E:\VSMS2010\VC\INCLUDE\YMATH.H
E:\VSMS2010\VC\INCLUDE\CFLOAT
E:\VSMS2010\VC\INCLUDE\FLOAT.H
E:\VSMS2010\VC\INCLUDE\CRTWRN.H
E:\VSMS2010\VC\INCLUDE\XTR1COMMON
E:\VSMS2010\VC\INCLUDE\XFWRAP
E:\VSMS2010\VC\INCLUDE\XFWRAP1
E:\VSMS2010\VC\INCLUDE\XXTYPE_TRAITS
E:\VSMS2010\VC\INCLUDE\TYPEINFO
E:\VSMS2010\VC\INCLUDE\XLOCINFO
E:\VSMS2010\VC\INCLUDE\XLOCINFO.H
E:\VSMS2010\VC\INCLUDE\LOCALE.H
E:\VSMS2010\VC\INCLUDE\XDEBUG
E:\VSMS2010\VC\INCLUDE\SYSTEM_ERROR
E:\VSMS2010\VC\INCLUDE\CERRNO
E:\VSMS2010\VC\INCLUDE\SHARE.H
^E:\ОСНОВЫ ПРОГРАММИРОВАНИЯ\ЛАБОРАТОРНАЯ 1\112\112\112.CPP
E:\VSMS2010\VC\BIN\1049\CLUI.DLL
C:\WINDOWS\GLOBALIZATION\SORTING\SORTDEFAULT.NLS
C:\WINDOWS\SYSTEM32\TZRES.DLL
E:\основы программирования\Лабораторная 1\112\112\DEBUG\112.PCH
E:\основы программирования\лабораторная 1\112\112\112.H
E:\основы программирования\лабораторная 1\112\112\RESOURCE.H
