^E:\ОСНОВЫ ПРОГРАММИРОВАНИЯ\ЛАБА4.01\ЛАБА4.01\DEBUG\ЛАБА4.01.EXE.INTERMEDIATE.MANIFEST
/nologo /verbose /out:"Debug\лаба4.01.exe.embed.manifest" /manifest "Debug\лаба4.01.exe.intermediate.manifest"
^E:\ОСНОВЫ ПРОГРАММИРОВАНИЯ\ЛАБА4.01 НЕУДАЧНЫЙ ПАТЧ\ЛАБА4.01\DEBUG\ЛАБА4.01.EXE.INTERMEDIATE.MANIFEST
/nologo /verbose /out:"Debug\лаба4.01.exe.embed.manifest" /manifest "Debug\лаба4.01.exe.intermediate.manifest"
