^E:\ОСНОВЫ ПРОГРАММИРОВАНИЯ\ЛАБА3.01\ЛАБА3.01\STDAFX.CPP
/c /ZI /nologo /W3 /WX- /Od /Oy- /D WIN32 /D _DEBUG /D _CONSOLE /D _UNICODE /D UNICODE /Gm /EHsc /RTC1 /MDd /GS /fp:precise /Zc:wchar_t /Zc:forScope /Yc"StdAfx.h" /Fp"Debug\лаба3.01.pch" /Fo"Debug\\" /Fd"Debug\vc100.pdb" /Gd /TP /analyze- /errorReport:prompt E:\ОСНОВЫ ПРОГРАММИРОВАНИЯ\ЛАБА3.01\ЛАБА3.01\STDAFX.CPP
^E:\ОСНОВЫ ПРОГРАММИРОВАНИЯ\ЛАБА3.01\ЛАБА3.01\ЛАБА3.01.CPP
/c /ZI /nologo /W3 /WX- /Od /Oy- /D WIN32 /D _DEBUG /D _CONSOLE /D _UNICODE /D UNICODE /Gm /EHsc /RTC1 /MDd /GS /fp:precise /Zc:wchar_t /Zc:forScope /Yu"StdAfx.h" /Fp"Debug\лаба3.01.pch" /Fo"Debug\\" /Fd"Debug\vc100.pdb" /Gd /TP /analyze- /errorReport:prompt E:\ОСНОВЫ ПРОГРАММИРОВАНИЯ\ЛАБА3.01\ЛАБА3.01\ЛАБА3.01.CPP
