^E:\C++\ЛАБА 3.А22\ЛАБА 3.А22\STDAFX.CPP
E:\VSMS2010\VC\BIN\1049\CLUI.DLL
C:\WINDOWS\GLOBALIZATION\SORTING\SORTDEFAULT.NLS
E:\VSMS2010\COMMON7\IDE\MSPDBSRV.EXE
C:\WINDOWS\SYSTEM32\TZRES.DLL
E:\C++\лаба 3.а22\лаба 3.а22\STDAFX.H
E:\C++\лаба 3.а22\лаба 3.а22\TARGETVER.H
C:\PROGRAM FILES (X86)\MICROSOFT SDKS\WINDOWS\V7.0A\INCLUDE\SDKDDKVER.H
E:\VSMS2010\VC\INCLUDE\STDIO.H
E:\VSMS2010\VC\INCLUDE\CRTDEFS.H
E:\VSMS2010\VC\INCLUDE\SAL.H
E:\VSMS2010\VC\INCLUDE\CODEANALYSIS\SOURCEANNOTATIONS.H
E:\VSMS2010\VC\INCLUDE\VADEFS.H
E:\VSMS2010\VC\INCLUDE\SWPRINTF.INL
E:\VSMS2010\VC\INCLUDE\TCHAR.H
E:\VSMS2010\VC\INCLUDE\WCHAR.H
E:\VSMS2010\VC\INCLUDE\WTIME.INL
^E:\C++\ЛАБА 3.А22\ЛАБА 3.А22\ЛАБА 3.А22.CPP
E:\VSMS2010\VC\BIN\1049\CLUI.DLL
C:\WINDOWS\GLOBALIZATION\SORTING\SORTDEFAULT.NLS
C:\WINDOWS\SYSTEM32\TZRES.DLL
E:\C++\Лаба 3.А22\Лаба 3.А22\DEBUG\Лаба 3.А22.PCH
E:\VSMS2010\VC\INCLUDE\IOSTREAM
E:\VSMS2010\VC\INCLUDE\ISTREAM
E:\VSMS2010\VC\INCLUDE\OSTREAM
E:\VSMS2010\VC\INCLUDE\IOS
E:\VSMS2010\VC\INCLUDE\XLOCNUM
E:\VSMS2010\VC\INCLUDE\CLIMITS
E:\VSMS2010\VC\INCLUDE\YVALS.H
E:\VSMS2010\VC\INCLUDE\CRTDEFS.H
E:\VSMS2010\VC\INCLUDE\USE_ANSI.H
E:\VSMS2010\VC\INCLUDE\LIMITS.H
E:\VSMS2010\VC\INCLUDE\CMATH
E:\VSMS2010\VC\INCLUDE\MATH.H
E:\VSMS2010\VC\INCLUDE\CSTDIO
E:\VSMS2010\VC\INCLUDE\CSTDLIB
E:\VSMS2010\VC\INCLUDE\STDLIB.H
E:\VSMS2010\VC\INCLUDE\STREAMBUF
E:\VSMS2010\VC\INCLUDE\XIOSBASE
E:\VSMS2010\VC\INCLUDE\XLOCALE
E:\VSMS2010\VC\INCLUDE\CSTRING
E:\VSMS2010\VC\INCLUDE\STRING.H
E:\VSMS2010\VC\INCLUDE\STDEXCEPT
E:\VSMS2010\VC\INCLUDE\EXCEPTION
E:\VSMS2010\VC\INCLUDE\XSTDDEF
E:\VSMS2010\VC\INCLUDE\CSTDDEF
E:\VSMS2010\VC\INCLUDE\STDDEF.H
E:\VSMS2010\VC\INCLUDE\EH.H
E:\VSMS2010\VC\INCLUDE\MALLOC.H
E:\VSMS2010\VC\INCLUDE\XSTRING
E:\VSMS2010\VC\INCLUDE\XMEMORY
E:\VSMS2010\VC\INCLUDE\NEW
E:\VSMS2010\VC\INCLUDE\XUTILITY
E:\VSMS2010\VC\INCLUDE\UTILITY
E:\VSMS2010\VC\INCLUDE\IOSFWD
E:\VSMS2010\VC\INCLUDE\CWCHAR
E:\VSMS2010\VC\INCLUDE\CRTDBG.H
E:\VSMS2010\VC\INCLUDE\TYPE_TRAITS
E:\VSMS2010\VC\INCLUDE\LIMITS
E:\VSMS2010\VC\INCLUDE\YMATH.H
E:\VSMS2010\VC\INCLUDE\CFLOAT
E:\VSMS2010\VC\INCLUDE\FLOAT.H
E:\VSMS2010\VC\INCLUDE\CRTWRN.H
E:\VSMS2010\VC\INCLUDE\XTR1COMMON
E:\VSMS2010\VC\INCLUDE\XFWRAP
E:\VSMS2010\VC\INCLUDE\XFWRAP1
E:\VSMS2010\VC\INCLUDE\XXTYPE_TRAITS
E:\VSMS2010\VC\INCLUDE\TYPEINFO
E:\VSMS2010\VC\INCLUDE\XLOCINFO
E:\VSMS2010\VC\INCLUDE\XLOCINFO.H
E:\VSMS2010\VC\INCLUDE\CTYPE.H
E:\VSMS2010\VC\INCLUDE\LOCALE.H
E:\VSMS2010\VC\INCLUDE\XDEBUG
E:\VSMS2010\VC\INCLUDE\SYSTEM_ERROR
E:\VSMS2010\VC\INCLUDE\CERRNO
E:\VSMS2010\VC\INCLUDE\ERRNO.H
E:\VSMS2010\VC\INCLUDE\SHARE.H
E:\VSMS2010\VC\INCLUDE\STRING
E:\VSMS2010\COMMON7\IDE\MSPDBSRV.EXE
