^E:\C++\ЛАБА 3.В21\ЛАБА 3.В21\STDAFX.CPP
/c /ZI /nologo /W3 /WX- /Od /Oy- /D WIN32 /D _DEBUG /D _CONSOLE /D _UNICODE /D UNICODE /Gm /EHsc /RTC1 /MDd /GS /fp:precise /Zc:wchar_t /Zc:forScope /Yc"StdAfx.h" /Fp"Debug\лаба 3.В21.pch" /Fo"Debug\\" /Fd"Debug\vc100.pdb" /Gd /TP /analyze- /errorReport:prompt E:\C++\ЛАБА 3.В21\ЛАБА 3.В21\STDAFX.CPP
^E:\C++\ЛАБА 3.В21\ЛАБА 3.В21\ЛАБА 3.В21.CPP
/c /ZI /nologo /W3 /WX- /Od /Oy- /D WIN32 /D _DEBUG /D _CONSOLE /D _UNICODE /D UNICODE /Gm /EHsc /RTC1 /MDd /GS /fp:precise /Zc:wchar_t /Zc:forScope /Yu"StdAfx.h" /Fp"Debug\лаба 3.В21.pch" /Fo"Debug\\" /Fd"Debug\vc100.pdb" /Gd /TP /analyze- /errorReport:prompt E:\C++\ЛАБА 3.В21\ЛАБА 3.В21\ЛАБА 3.В21.CPP
