^E:\ЛАБА С++ СЕМЕСТР 2 НОМЕР 1\ЛАБА SEM02№1\ЛАБА SEM02№1\STDAFX.CPP
/c /ZI /nologo /W3 /WX- /Od /Oy- /D WIN32 /D _DEBUG /D _CONSOLE /D _UNICODE /D UNICODE /Gm /EHsc /RTC1 /MDd /GS /fp:precise /Zc:wchar_t /Zc:forScope /Yc"StdAfx.h" /Fp"Debug\лаба sem02№1.pch" /Fo"Debug\\" /Fd"Debug\vc100.pdb" /Gd /TP /analyze- /errorReport:prompt E:\ЛАБА С++ СЕМЕСТР 2 НОМЕР 1\ЛАБА SEM02№1\ЛАБА SEM02№1\STDAFX.CPP
^E:\ЛАБА С++ СЕМЕСТР 2 НОМЕР 1\ЛАБА SEM02№1\ЛАБА SEM02№1\ЛАБА SEM02№1.CPP
/c /ZI /nologo /W3 /WX- /Od /Oy- /D WIN32 /D _DEBUG /D _CONSOLE /D _UNICODE /D UNICODE /Gm /EHsc /RTC1 /MDd /GS /fp:precise /Zc:wchar_t /Zc:forScope /Yu"StdAfx.h" /Fp"Debug\лаба sem02№1.pch" /Fo"Debug\\" /Fd"Debug\vc100.pdb" /Gd /TP /analyze- /errorReport:prompt E:\ЛАБА С++ СЕМЕСТР 2 НОМЕР 1\ЛАБА SEM02№1\ЛАБА SEM02№1\ЛАБА SEM02№1.CPP
^E:\C++\ЛАБА С++ СЕМЕСТР 2 НОМЕР 1\ЛАБА SEM02№1\ЛАБА SEM02№1\STDAFX.CPP
/c /ZI /nologo /W3 /WX- /Od /Oy- /D WIN32 /D _DEBUG /D _CONSOLE /D _UNICODE /D UNICODE /Gm /EHsc /RTC1 /MDd /GS /fp:precise /Zc:wchar_t /Zc:forScope /Yc"StdAfx.h" /Fp"Debug\лаба sem02№1.pch" /Fo"Debug\\" /Fd"Debug\vc100.pdb" /Gd /TP /analyze- /errorReport:prompt E:\C++\ЛАБА С++ СЕМЕСТР 2 НОМЕР 1\ЛАБА SEM02№1\ЛАБА SEM02№1\STDAFX.CPP
^E:\C++\ЛАБА С++ СЕМЕСТР 2 НОМЕР 1\ЛАБА SEM02№1\ЛАБА SEM02№1\ЛАБА SEM02№1.CPP
/c /ZI /nologo /W3 /WX- /Od /Oy- /D WIN32 /D _DEBUG /D _CONSOLE /D _UNICODE /D UNICODE /Gm /EHsc /RTC1 /MDd /GS /fp:precise /Zc:wchar_t /Zc:forScope /Yu"StdAfx.h" /Fp"Debug\лаба sem02№1.pch" /Fo"Debug\\" /Fd"Debug\vc100.pdb" /Gd /TP /analyze- /errorReport:prompt E:\C++\ЛАБА С++ СЕМЕСТР 2 НОМЕР 1\ЛАБА SEM02№1\ЛАБА SEM02№1\ЛАБА SEM02№1.CPP
