^E:\ЛАБА С++ СЕМЕСТР 2 НОМЕР 1\ЛАБА SEM02№1\ЛАБА SEM02№1\DEBUG\ЛАБА SEM02№1_MANIFEST.RC
E:\лаба с++ Семестр 2 номер 1\лаба SEM02№1\лаба SEM02№1\DEBUG\лаба SEM02№1.EXE.EMBED.MANIFEST.RES
^E:\C++\ЛАБА С++ СЕМЕСТР 2 НОМЕР 1\ЛАБА SEM02№1\ЛАБА SEM02№1\DEBUG\ЛАБА SEM02№1_MANIFEST.RC
E:\C++\лаба с++ Семестр 2 номер 1\лаба SEM02№1\лаба SEM02№1\DEBUG\лаба SEM02№1.EXE.EMBED.MANIFEST.RES
