^E:\ANNA\PROGRAMS FOR UNIVER\CPP\LESSON 1 MSVS\EXAMPLE5\EXAMPLE5\DEBUG\EXAMPLE5.EXE.EMBED.MANIFEST.RES|E:\ANNA\PROGRAMS FOR UNIVER\CPP\LESSON 1 MSVS\EXAMPLE5\EXAMPLE5\DEBUG\EXAMPLE5.OBJ|E:\ANNA\PROGRAMS FOR UNIVER\CPP\LESSON 1 MSVS\EXAMPLE5\EXAMPLE5\DEBUG\STDAFX.OBJ
C:\PROGRAM FILES\MICROSOFT SDKS\WINDOWS\V7.0A\LIB\KERNEL32.LIB
C:\PROGRAM FILES\MICROSOFT SDKS\WINDOWS\V7.0A\LIB\USER32.LIB
C:\PROGRAM FILES\MICROSOFT SDKS\WINDOWS\V7.0A\LIB\GDI32.LIB
C:\PROGRAM FILES\MICROSOFT SDKS\WINDOWS\V7.0A\LIB\WINSPOOL.LIB
C:\PROGRAM FILES\MICROSOFT SDKS\WINDOWS\V7.0A\LIB\COMDLG32.LIB
C:\PROGRAM FILES\MICROSOFT SDKS\WINDOWS\V7.0A\LIB\ADVAPI32.LIB
C:\PROGRAM FILES\MICROSOFT SDKS\WINDOWS\V7.0A\LIB\SHELL32.LIB
C:\PROGRAM FILES\MICROSOFT SDKS\WINDOWS\V7.0A\LIB\OLE32.LIB
C:\PROGRAM FILES\MICROSOFT SDKS\WINDOWS\V7.0A\LIB\OLEAUT32.LIB
C:\PROGRAM FILES\MICROSOFT SDKS\WINDOWS\V7.0A\LIB\UUID.LIB
C:\PROGRAM FILES\MICROSOFT SDKS\WINDOWS\V7.0A\LIB\ODBC32.LIB
C:\PROGRAM FILES\MICROSOFT SDKS\WINDOWS\V7.0A\LIB\ODBCCP32.LIB
E:\ANNA\PROGRAMS FOR UNIVER\CPP\LESSON 1 MSVS\EXAMPLE5\EXAMPLE5\DEBUG\EXAMPLE5.EXE.EMBED.MANIFEST.RES
E:\ANNA\PROGRAMS FOR UNIVER\CPP\LESSON 1 MSVS\EXAMPLE5\EXAMPLE5\DEBUG\EXAMPLE5.OBJ
E:\ANNA\PROGRAMS FOR UNIVER\CPP\LESSON 1 MSVS\EXAMPLE5\EXAMPLE5\DEBUG\STDAFX.OBJ
C:\WINDOWS\SYSTEM32\TZRES.DLL
E:\ANNA\PROGRAMS FOR UNIVER\CPP\LESSON 1 MSVS\EXAMPLE5\DEBUG\EXAMPLE5.ILK
E:\ANNA\PROGRAMS FOR UNIVER\CPP\LESSON 1 MSVS\EXAMPLE5\DEBUG\EXAMPLE5.EXE
E:\ANNA\PROGRAMS FOR UNIVER\CPP\LESSON 1 MSVS\EXAMPLE5\DEBUG\EXAMPLE5.PDB
C:\WINDOWS\GLOBALIZATION\SORTING\SORTDEFAULT.NLS
C:\PROGRAM FILES\MICROSOFT VISUAL STUDIO 10.0\VC\LIB\MSVCPRTD.LIB
C:\PROGRAM FILES\MICROSOFT VISUAL STUDIO 10.0\VC\LIB\MSVCRTD.LIB
C:\PROGRAM FILES\MICROSOFT VISUAL STUDIO 10.0\VC\LIB\OLDNAMES.LIB
