^E:\ОСНОВЫ ПРОГРАММИРОВАНИЯ\ЛАБА2.0\ЛАБА2.0\DEBUG\STDAFX.OBJ|E:\ОСНОВЫ ПРОГРАММИРОВАНИЯ\ЛАБА2.0\ЛАБА2.0\DEBUG\ЛАБА2.0.EXE.EMBED.MANIFEST.RES|E:\ОСНОВЫ ПРОГРАММИРОВАНИЯ\ЛАБА2.0\ЛАБА2.0\DEBUG\ЛАБА2.0.OBJ
C:\PROGRAM FILES (X86)\MICROSOFT SDKS\WINDOWS\V7.0A\LIB\KERNEL32.LIB
C:\PROGRAM FILES (X86)\MICROSOFT SDKS\WINDOWS\V7.0A\LIB\USER32.LIB
C:\PROGRAM FILES (X86)\MICROSOFT SDKS\WINDOWS\V7.0A\LIB\GDI32.LIB
C:\PROGRAM FILES (X86)\MICROSOFT SDKS\WINDOWS\V7.0A\LIB\WINSPOOL.LIB
C:\PROGRAM FILES (X86)\MICROSOFT SDKS\WINDOWS\V7.0A\LIB\COMDLG32.LIB
C:\PROGRAM FILES (X86)\MICROSOFT SDKS\WINDOWS\V7.0A\LIB\ADVAPI32.LIB
C:\PROGRAM FILES (X86)\MICROSOFT SDKS\WINDOWS\V7.0A\LIB\SHELL32.LIB
C:\PROGRAM FILES (X86)\MICROSOFT SDKS\WINDOWS\V7.0A\LIB\OLE32.LIB
C:\PROGRAM FILES (X86)\MICROSOFT SDKS\WINDOWS\V7.0A\LIB\OLEAUT32.LIB
C:\PROGRAM FILES (X86)\MICROSOFT SDKS\WINDOWS\V7.0A\LIB\UUID.LIB
C:\PROGRAM FILES (X86)\MICROSOFT SDKS\WINDOWS\V7.0A\LIB\ODBC32.LIB
C:\PROGRAM FILES (X86)\MICROSOFT SDKS\WINDOWS\V7.0A\LIB\ODBCCP32.LIB
E:\основы программирования\Лаба2.0\Лаба2.0\DEBUG\Лаба2.0.EXE.EMBED.MANIFEST.RES
E:\основы программирования\Лаба2.0\Лаба2.0\DEBUG\STDAFX.OBJ
E:\основы программирования\Лаба2.0\Лаба2.0\DEBUG\Лаба2.0.OBJ
C:\WINDOWS\SYSTEM32\TZRES.DLL
E:\основы программирования\Лаба2.0\DEBUG\Лаба2.0.ILK
E:\основы программирования\Лаба2.0\DEBUG\Лаба2.0.EXE
E:\основы программирования\Лаба2.0\DEBUG\Лаба2.0.PDB
C:\WINDOWS\GLOBALIZATION\SORTING\SORTDEFAULT.NLS
E:\VSMS2010\VC\LIB\MSVCRTD.LIB
E:\VSMS2010\VC\LIB\OLDNAMES.LIB
E:\VSMS2010\VC\LIB\MSVCPRTD.LIB
E:\VSMS2010\VC\BIN\LINK.EXE
E:\VSMS2010\VC\BIN\CVTRES.EXE
