^E:\C++\LR5\LR5\STDAFX.CPP
E:\C++\LR5\LR5\DEBUG\LR5.PCH
E:\C++\LR5\LR5\DEBUG\STDAFX.OBJ
E:\C++\LR5\LR5\DEBUG\VC100.PDB
^E:\C++\LR5\LR5\LR5.CPP
E:\C++\LR5\LR5\DEBUG\VC100.PDB
E:\C++\LR5\LR5\DEBUG\LR5.OBJ
