^D:\USERS\USER\MY\LAB4A\LAB4A\DEBUG\LAB4A_MANIFEST.RC
D:\USERS\USER\MY\LAB4A\LAB4A\DEBUG\LAB4A.EXE.EMBED.MANIFEST.RES
^C:\TEMP\LAB4A\LAB4A\DEBUG\LAB4A_MANIFEST.RC
C:\TEMP\LAB4A\LAB4A\DEBUG\LAB4A.EXE.EMBED.MANIFEST.RES
^\\COMP01\STUDENTS\LESSON 1 MSVS\LAB4A\LAB4A\DEBUG\LAB4A_MANIFEST.RC
^E:\ОСНОВЫ ПРОГРАММИРОВАНИЯ\LESSON 1 MSVS\LAB4A\LAB4A\DEBUG\LAB4A_MANIFEST.RC
E:\основы программирования\LESSON 1 MSVS\LAB4A\LAB4A\DEBUG\LAB4A.EXE.EMBED.MANIFEST.RES
