^E:\C++\LR4\LR4\DEBUG\LR4.EXE.EMBED.MANIFEST.RES|E:\C++\LR4\LR4\DEBUG\LR4.OBJ|E:\C++\LR4\LR4\DEBUG\STDAFX.OBJ
/ERRORREPORT:PROMPT /OUT:"E:\c++\LR4\Debug\LR4.exe" /INCREMENTAL /NOLOGO kernel32.lib user32.lib gdi32.lib winspool.lib comdlg32.lib advapi32.lib shell32.lib ole32.lib oleaut32.lib uuid.lib odbc32.lib odbccp32.lib /MANIFEST /ManifestFile:"Debug\LR4.exe.intermediate.manifest" /MANIFESTUAC:"level='asInvoker' uiAccess='false'" /DEBUG /PDB:"E:\c++\LR4\Debug\LR4.pdb" /SUBSYSTEM:CONSOLE /TLBID:1 /DYNAMICBASE /NXCOMPAT /IMPLIB:"E:\c++\LR4\Debug\LR4.lib" /MACHINE:X86 Debug\LR4.exe.embed.manifest.res
Debug\LR4.obj
Debug\stdafx.obj
